<svg width="40" height="40" viewBox="0 0 40 40" fill="none" xmlns="http://www.w3.org/2000/svg">
<rect width="40" height="40" rx="20" fill="#8D191C"/>
<path d="M20 11L9 17L13 19.18V25.18L20 29L27 25.18V19.18L29 18.09V25H31V17L20 11ZM26.82 17L20 20.72L13.18 17L20 13.28L26.82 17ZM25 23.99L20 26.72L15 23.99V20.27L20 23L25 20.27V23.99Z" fill="white"/>
</svg>
