<svg width="40" height="40" viewBox="0 0 40 40" fill="none" xmlns="http://www.w3.org/2000/svg">
<rect width="40" height="40" rx="20" fill="#8D191C"/>
<path d="M23.75 22.5C23.5511 22.5 23.3603 22.579 23.2197 22.7197C23.079 22.8603 23 23.0511 23 23.25C23 23.4489 23.079 23.6397 23.2197 23.7803C23.3603 23.921 23.5511 24 23.75 24H26.25C26.4489 24 26.6397 23.921 26.7803 23.7803C26.921 23.6397 27 23.4489 27 23.25C27 23.0511 26.921 22.8603 26.7803 22.7197C26.6397 22.579 26.4489 22.5 26.25 22.5H23.75Z" fill="white"/>
<path d="M12.75 13C12.0207 13 11.3212 13.2897 10.8055 13.8055C10.2897 14.3212 10 15.0207 10 15.75V24.25C10 24.9793 10.2897 25.6788 10.8055 26.1945C11.3212 26.7103 12.0207 27 12.75 27H27.25C27.9793 27 28.6788 26.7103 29.1945 26.1945C29.7103 25.6788 30 24.9793 30 24.25V15.75C30 15.0207 29.7103 14.3212 29.1945 13.8055C28.6788 13.2897 27.9793 13 27.25 13H12.75ZM11.5 24.25V19H28.5V24.25C28.5 24.94 27.94 25.5 27.25 25.5H12.75C12.06 25.5 11.5 24.94 11.5 24.25ZM11.5 17.5V15.75C11.5 15.06 12.06 14.5 12.75 14.5H27.25C27.94 14.5 28.5 15.06 28.5 15.75V17.5H11.5Z" fill="white"/>
</svg>
